<?xml version="1.0"?>
<job>
  <recipeSet>
    <recipe id="1" status="Completed" result="FAIL" checkpoint_file="checkpoint_193781.conf">
      <task name="fail" keepchanges="" id="1" status="Completed" result="FAIL" start_time="2023-09-19T21:16:45+0200" end_time="2023-09-19T21:16:45+0200">
        <logs>
          <log path="recipes/1/tasks/1/logs/harness.log" filename="harness.log"/>
          <log path="recipes/1/tasks/1/logs/taskout.log" filename="taskout.log"/>
        </logs>
        <fetch url="https://gitlab.com/api/v4/projects/cki-project%2fdocumentation/repository/archive.zip#content/docs/test-maintainers/status-meaning/restraint/fail"/>
        <params>
          <param name="JOB_MEMBERS" value="kvm-02-guest08.lab.eng.rdu2.redhat.com"/>
          <param name="RECIPE_MEMBERS" value="kvm-02-guest08.lab.eng.rdu2.redhat.com"/>
        </params>
        <results>
          <result id="1695150997" path="/" result="FAIL">
            <logs>
              <log path="recipes/1/tasks/1/results/1695150997/logs/avc.log" filename="avc.log"/>
            </logs>
          </result>
        </results>
      </task>
      <task name="pass" keepchanges="" id="2" status="Completed" result="PASS" start_time="2023-09-19T21:16:54+0200" end_time="2023-09-19T21:16:55+0200" duration="01">
        <logs>
          <log path="recipes/1/tasks/2/logs/harness.log" filename="harness.log"/>
          <log path="recipes/1/tasks/2/logs/taskout.log" filename="taskout.log"/>
        </logs>
        <fetch url="https://gitlab.com/api/v4/projects/cki-project%2fdocumentation/repository/archive.zip#content/docs/test-maintainers/status-meaning/restraint/pass"/>
        <params>
          <param name="JOB_MEMBERS" value="kvm-02-guest08.lab.eng.rdu2.redhat.com"/>
          <param name="RECIPE_MEMBERS" value="kvm-02-guest08.lab.eng.rdu2.redhat.com"/>
        </params>
        <results>
          <result id="1695151001" path="/" result="PASS">
            <logs>
              <log path="recipes/1/tasks/2/results/1695151001/logs/avc.log" filename="avc.log"/>
            </logs>
          </result>
        </results>
      </task>
    </recipe>
  </recipeSet>
</job>
