<?xml version="1.0"?>
<job>
  <recipeSet>
    <recipe id="1" status="Completed" result="WARN" checkpoint_file="checkpoint_164151.conf">
      <task name="warn" keepchanges="" id="1" status="Completed" result="WARN" start_time="2023-09-15T07:12:50-0400" end_time="2023-09-15T07:12:51-0400" duration="01">
        <logs>
          <log path="recipes/1/tasks/1/logs/harness.log" filename="harness.log"/>
          <log path="recipes/1/tasks/1/logs/taskout.log" filename="taskout.log"/>
        </logs>
        <fetch url="https://gitlab.com/api/v4/projects/cki-project%2fdocumentation/repository/archive.zip#content/docs/test-maintainers/status-meaning/restraint/warn"/>
        <params>
          <param name="JOB_MEMBERS" value="localhost"/>
          <param name="RECIPE_MEMBERS" value="localhost"/>
        </params>
        <results>
          <result id="1694776371" path="/" result="WARN">
            <logs>
              <log path="recipes/1/tasks/1/results/1694776371/logs/avc.log" filename="avc.log"/>
            </logs>
          </result>
        </results>
      </task>
      <task name="pass" keepchanges="" id="2" status="Completed" result="PASS" start_time="2023-09-15T07:12:51-0400" end_time="2023-09-15T07:12:52-0400" duration="01">
        <logs>
          <log path="recipes/1/tasks/2/logs/harness.log" filename="harness.log"/>
          <log path="recipes/1/tasks/2/logs/taskout.log" filename="taskout.log"/>
        </logs>
        <fetch url="https://gitlab.com/api/v4/projects/cki-project%2fdocumentation/repository/archive.zip#content/docs/test-maintainers/status-meaning/restraint/pass"/>
        <params>
          <param name="JOB_MEMBERS" value="localhost"/>
          <param name="RECIPE_MEMBERS" value="localhost"/>
        </params>
        <results>
          <result id="1694776375" path="exit_code" result="PASS" score="0">
            <logs/>
          </result>
        </results>
      </task>
    </recipe>
  </recipeSet>
</job>
